s,p,w,d,y,f,o,q,r,ı
f,u,g,y,o,d,w,p,e,a,r
s,p,u,r,y,t
t,u,w,s,o,f
e,g,r
t,p,ı,u,a
g,a,o,w,r,ı,t,u,s,p,e,f,q,y
a,ı
d,e,s,p,t,a,f,q,y,r,ı,o,g
f,ı
q,d,o,u,a,w,g,e,r,p,f,s,t
q,r,t,d
y,e,w,t,a,ı,d,f,s,u,p,g,r
ı,d,t,y,u,r,q,a,f,o
w,u,r,o,g,q,s,ı,y,d,p,a,t
t,ı,o,f,p,s
r,t,p,q,d,u
s,o,q,ı
ı,e,o
s,f
d,f
e,y,p,u,s,g,w,o,q,f
a,s,g,o,r,y,f,d,q,ı,t,u,w
q,g,d,p,r,w,s,e,ı,t,o,a,y
ı,q,f,y,r,g,e,u,a
p,f,y,t,e,d,u,q
o,g
a,ı,p,e,y,r,o,t,s,f
o,t,q,w,e,f,s,r,g,ı,u,p
o,f,w,a,d,y,u,e,g,p,ı,s,q
d
w,d,s,f,a,e,p,u,g,r,ı,o,q
y,t,s,q,u,f,p,d,a,e,r
t,e,q,d,y,g,ı
d,e,t
a,f,y,s,q,w,t,u
a,s,o,p,r
u,d,p,ı,q,e,o,f
a,u,o,p,e,f,t,y,d
g,ı,a,f,r,o,y,w
a,p,d,g,r,w
u,p,a,q,d,s,e,ı,w,o,y,t
u,ı
p,t,o,s,r,d,q,g,a,e,f
g,ı,d,p,f,s,e,q,t,y,o,r
u,p,ı,w,d
f,t,w,u,g
w,f,e,r
w
p
y,w,a,f,t,r
d,w,e,g,f,a,u,t,y,ı,r,p
w,q,r,y,d,u,e,ı,t,p,g,o,a
g,a,f,y,s,ı,q
p,ı,a,t
p
a,r,e,p,ı,w
u,o,e,y,t,q,p,a,f,ı,w
a
w,s
o,u,f,t,a,w,y
p,u,w,g,a,t
ı,s,u,f,o
d,u,p,q,o,a,e,y,f,ı,s,t,g,w
y,f,e,d,ı
d,ı,g,a,q
f
s,t,q,r,d,f,g,p,o,u,e,ı
p
d,u,w,y,r,a,s,o,p,e,ı,f,g
y,a,w,q,ı,u,o,d,r,p,t,f
q,ı,g,t,y,o,s,p
q,r,e,y,g,a,w,ı,p,f,d,t,u
s,a,u,t,o,d,f,ı,w,e,g
w,f,e,r,p,g,t,d
e,r,a,f,d,g,s,q,w,y,t
r,w,g,f,d,s,ı,u,y,q,o,p
s,d,a,ı,u,q,e,t,o,f,p
f,q,p,o,u,e,d,g,w
y,d,u,r,g,a,p,o,s,q,e,w
d,o,s,u,t,g,w,ı,f,r,p,y,q,e
e
y,e,f,r
o,q,e
g,a,q,r,p,o,d
ı,f,r
u,ı,f,g,q,p,y,d,r,w,s,o
e,d
g,a,u,p,e,r,f,ı,y,w,q,d
p,t,g,d,ı
o,g,y,q,w,s,p,r,a,f
y,o,s,r,f,a,q
p,f,t,d,o,q,ı,u,a,g,r
g
g,o,f
o,ı
s
o,r,f,y,a,p,u,g,q
y
s,t,p,q,r,w,y,ı,a
w,t
f,e,r,a,ı,u,p,q,g,d,t,s
d,e,g,r,ı,y,p,t,o,w,s,q,a
a,w,g,p,q,ı,r
a,w,o,s,q,ı,y,d,f,u
u,r,ı,w,e,p
o,ı,e,f,p,y,r
r,d,u,t,p,a,s,y,g,o,ı,w,e,f
q,a,f,r,p,u,o,y,w,e,d,s
w,f
ı,u,d
y,r,p,t
a,q,u,t
a,e,f,r,g,u,w,y
p,r,ı,g,w,q,d,y,f,u,t,s
e
f,a,ı,r,p,u,s,d,o,e,y,w,t,g
q,w,a,g,u,y,e,s,d,p,r,f
e,ı,f,y,r,u,o,d,p,t,q
g,r,e,ı,d,w,a,o,p
r,d,y,f,p,t,u,s
t,q,s,p,e,u,g,f,ı,a,d,r
d,o,a,s
a,t,d,s,q,e,p,o
ı,y,g,w,r,d,s,a
ı,o,a,u
g,w,q,f,o,s,e,r,y
y,q
u,f,y,t,o,a,g,w,p
p,r,d,y,q,ı,w,s,a
d,t,p,f,s,q,y,g
t,a,ı,y,w,r,g,d,u,q,p,e,o,s
f
e,w,t,q,u,y,g,f,a,s,p
g,q,s,d,y,e,r
w,o,d,e,p
a,p,r,g,w,e,o,t
t,d,f,ı,u,p
f,o,d,q,u,s,e,ı,g,t
u,g,y,s,p,q,a,d,r,e,ı,w
a,y,d,g,s,w,u,ı
y,p,r,o
w,f,t,d,e
d,r,t,u,f,ı,g,s,y,q,e,p
d,a,o,e
y,g,f
e,f,d,r,q,p,a
p,r,u,a,w
ı,g,a,t,s,q,o,f,r
y,d,e,w,r
s,p,t,d,u,f,g,e,y,ı,o
y
r,w,g,e,y,d,f,o,t,u,a
q,f,p,u
w,g,r,u,ı,e,q,t,p
a,o,ı,w,d,t,s,g,r,p,e
s,w
d,q,a,t,r,o,p,e,s
r,o,q,t,y,w,g,e,p,d
y
g,p,u,q,w,r,f
t,g,q,a,r,u,e,y,w,f,o,d,s
t,s,f,r,d,o
e,o,d,s,q,u,a,f,p
w,t
a,ı
o,a,p,q,s,r,t,y,e,f,g,ı,d,u
w,s,t,g,y,d,a,p,o,f
d,r,s,o,p,a,g,f
d,s,f,ı,w,p,r
ı,p,f,o,d,t,a,u,w
a,s,p,g,ı,u,y,r,f,w,q,o,t
a,w,ı,f,t,o,y,r,p,d,u,g,e
d,u,t,a,f,r,ı,q,g
d,p,o,s,q,w,f,u,e,t,y
r,f,w,t,e,ı
r,w,g,t,o,e,u,q
r,u,s,w,o,f,a
d,e,q,y,p,g,a,ı,w,o,f
u,s,e,a,y,p,r,q,d,ı,f,w
d,e,w,ı,u,f,p,s,g
g
w,a,e
p,y,ı,r,g,d,s,t,a,f,q,w,u,o
t,g,q
d,o,r,f,a,t,g,q,w,p,y,s,u
y,f,s,e,w,u,d,q
ı,u,d,r,a,w,o,q,t,e,f,s
t,d,u,s,y,q,e,a,w,r,p,f,g,ı
s,a,e,y,w,p,t
r,p
t,ı,o
p,s,f,u,a,o,r,w,e,y
q,p,r,e,w
w,a,q,r,f,u
s,o,ı,y,t,f,u,d,g,w,p,a,q,r
d,r,o,y,s
q,s,f,w,d
y,a,q,w
a,d
r
f,u,d,e,g,w,s,y,ı
s,d,a,u,ı,t,w,q,f,g,e,p
f,g,ı,u,a
f,ı,o,u,a,w,s,t,q,d,g,e
e,s,g,a,y,u,q,ı,p,r,f
u,s,e,ı,d,p,o,r,y
s,o,r,e,p,f
p,o
y,d,s,f,ı,r,p,o,g,a
t,p
g,p,y,o,ı
p,a,g,ı,y,r,e,f,q,w
s,g,ı
p,g,w,ı,o,y,q,a,u,f,e,s,t,d
u,o,p,y,r
d,a,p,u,y,f
q,w,t,d
u,s,t,r,e,ı,g
r,e,a,o,t,u,ı,f,y
w,y,r,f,a,q,g,ı,u
r,a,g,p,f,d,y,w,ı,s,u,e
u,f,d
w,ı,a,s,y,t,o,r,f
p,o,q,u,y
t,a,ı
t,q,p,o,w,s,g,ı,f,y,u,a,d,e
ı,d,f,a,g,e,r,w,s,y,q,t,p,u
t,p,y,e,ı,d,w,s,o,u,r
r,u,ı,s,g,t,w,q,d
t,ı,e,d,g,o,p,u,w,r,f,s,q
e,d,t
r,p,y,u,e,t,d,a,f,ı,w,o
y,a,e,s,ı,r,o,q,u,d
e,a,s,f,t
r,e,f,y,ı,a,t,s
a,y
o,q,f,u,ı
y,s,q,o,d,w,p,u,t,g,f,a
u,e,ı,t,s,q,d,r,y,o,g,p
w,ı,d,t,e
d,a,f
ı,r,t,e,y,u,w,a,q
u,r,ı,e,s
y,q,g,w
r,ı,d,e
o,u,y,a
u
u
t,y,p,d,u,r,g,ı
g,e,s,ı,u,d,f
w,d,g,s,r,u,a,e,f,ı
w,ı,g
u,w,t,y,d
ı,y,u,a,s,w,o,t
ı,t,y,r,u,q,a
p,ı,w,q,u,s
a,t,w,o,y,q,p,r,f
s,t,p,d,g,q,e
o,d,u,g,s,ı,p,r
u,g,a,t,o,d,r,e,s,p
r,ı,p
ı,s,w
g,d,q,o,s,e,y,r,a,u
ı
u,q,p,f,o
ı,p,r,g,d,e,q
o,ı,w,p,t,f,u,r,q,s,y,e,g,d
q,w
ı,p,q,a
y,w,p,r,e,u,f,s,ı,g,q
f,w,a,y,t
r,o,w,q,g,u,a,s
ı,u,y,o,r,s,w,g
t,f,a,y,o,e,q,ı,g,u,s
d,t,ı,o,u,w,e,p,a,s,y,r,f,q
a,s,d,w
u,e,d
o,f,q,p,d
y,e,ı,o,t,d,a,g,p,q,f,u,r,s
a,w,e,g
s,q,p,a,e,o,ı,f,u,g,d,w,r,y
q,w,o,ı,a
r,s,q,ı,w,p,f,y,o,e
p,t,o,s,e,u,r,d,y,ı,w,q,g
g,q,y,t,e,r,u,w,d,a,s
ı,w,e,u,d,q,f
t,a,p,q,r,o,d,u,s,g
a,o,r,f,d,q,w,g,e
e,f,p,r,s,y,a,q,o,t,u,w,g
g,p,r,f,ı,d
s,t,a,y
d,r,o,a,q,t,f,y,p
s,p,w,d
o,d,s,t,y,w,ı,u,q,a,g,r,f,p
g,u,d,a,w
o,ı,s,w,p,r,u,y,e,f,a,g
f,s,p
ı,g,r,f
ı,u,g,d,e,f,w
d
f,u,t,y,d,ı,p,o,q,e
p,w,ı,y,t,g,o,r,d,f,q
f,s,t,ı,w,p
o,f,t,w,g,r,q,a,ı,u,e,y
y,ı,u,o,t,e,p,w,f
o,r
q,r,g,t,s,u,f,d,y,ı
g,p,q,ı,y,u,s,e,d,w
q,y,f
ı,s,e,a,g,r,q,y,f,o,t,u,p
a,y,w,r,o,s,e,ı,p,g,d,q,u,t
ı,q,e,f,a,s,p,g,r,o,t,w,d,y
q,r,d,w,ı,a,p
r,t,u,p,q,o,g,f,e,a,w
u,d,q,a,p,o,s,y,e,w,ı
d,ı,q,e,t,f,w,r,s
e,q
p,y
r,o,g,p,u,t,e,ı,q,y
u,t,f,s,w,o,e,g,ı,a,q,y
s
g,ı
f,t,q,u,s,d,a
y,t,w,s
r,p,q,w,u,o
y,t
o,u,y,r,ı,a,g,f,s,q,d,e,t,w
y,o,q,t
w,p,r,q,e,d,ı,u,a
y,ı,a,r,t,q,w,f,p,g,o,d,e
o
q,a,o,w,r,u,t,y,f,p,s
a,ı,g,y,q,t,s
t
ı,r
p,q,d
o,t,a,q,e
r,q,u,y,t,ı,f,o,d,p,a,e,w
f,ı,t,o,s,p,g,u,a,r
g,s,w,ı,d,a,u,f,r,p,y,q,e,o
e,o,s,u,f,w,p
w,a,u,ı,g,p,y
y,p,t
w,r,e,t,g,a,y,s,d
r,e,p,t,u,d,y,f,a
o,p,q,f,t,u,r,a,g,w,ı,y,d,s
q,a,ı,y,o,r,p,t,w,e
e,s,g,u,t,p
e,ı,a,f,y,g,p,t
u,f,w,y
ı,o,s,w,d,r
q,p,d,o,e,y,u,s,w,a,r,ı,g
u,y,t,w,q,ı,o,p,g,f,a,r
r,u,ı,o,p,t,s,e,w,q,d,g
p,e,d,t,q,y,f,g,o,s,w,u,a
t,s,ı,d,a,e,q,p,o,u,r,f,g
a,g
g,r,a,u,y,e,ı,t,w,s
t,r
e,p,r,u
t,q,s,w
r,s,o
a,s,w,y,o,r,q,f
g,y,q,d,o,e,f
t,u,f,r,q,a,w,s,o
q,d,ı,p,e,o
ı,o,y,e,t,u,a,s,r,w
p,u,s,d,o,w,y,ı,q,f,r,e
w,e,ı,p
e
r,w,e,y
e,f,q
e,p,d,ı,w,s,o,a,g,r,f,t,u,y
f,g
o,u,t,q,g
ı,f,q,w,d,o,a,g,e,p,s,r,u
w,ı,d,r,o,t,q
ı,t,g,w,s,q,d,y
s,o,f
ı,w,o,d,y,e,u,f,g,q
e,a,t,ı,o,q,f,p,y
w,f,g,y
g,w,r,u,f,y,e,a
w,f,q,e,o,t,a
w,f,ı
a,d,t
e,f,w,r,s,g,q,y,d,ı,t,o,u
a,u,e,p,o,s,ı,y,f,q,r,d,w,g
u,ı,a,o,p,f,t
r,u,t,d,p,a,f,ı,w
a,ı,d,p,o,q,s,e,f,w,u
o,ı,q,f,d,y,t,p,e,r
a,t,e,p,g,f,q,w,u
f,p,ı,e,a,g,s,t,o,d,q,r,y
e,a,y,s,o,u,g,ı,p,d,f,q
f,ı,o,q,w,g,p,d,a,y,t
d,y,e,r
s,ı
y,s,o,g,r,p,f,ı,w,q
e,d,y,q,o,t,a,s,f,r,p
f,ı,r,w
t,q,s,u
o,ı,w
p,s,f,g,q,e,r,a,d,ı,w,u,y
d
w,o,t,y,u,ı,q,p,r,d,e,s
r,q,w,y,g,ı,t,f,u
f,e,o,a
w,g,ı,p,d,f,a,r,y,u,q,e,o,s
y,p,r
g,t,p,a,d,s,w,y,u,o,q
g,s,w,t,p,e,f
o,ı,u,e,w,g
o,t,w,e,y,u,p,f
u,t
f,q
ı,s,g,o,u,w,r,p,y,e,q,t
u,r,d,t,o,ı,e,f,y,q
q,s,u
q,d,y,t,w
f,u,w,p
o,p,y,u,q,a,f,w
o,s,a,r,d,t,q,y,f,w
q,u,d,p,g,a,f,e,ı,o
q
y,u,s,w,t,p,o,a,g,f,r,e,d,ı
t,o,q
g,f,y,o,ı,p,a,d,t,w,s
e,r,o,p
ı,f,g,d,a,y,e,s,p,q,o,w
ı,g,o,f,t,s,r,u,p,w,q
o,s,y,r,f,q,d
p,q
t,y
d,o,a,f,p,e,ı,t,u,s,w,g
ı,a
a,s,g,r,o,e,u,q,ı,f
d,r,e,o,p,u,ı,a,f
t,e,ı,d,f,y
r,y,q
g,y,d,t,w,u,ı,e,p,q,r
u
w,p
g,f,y,u,a,q,w
t,o,r,g,s,u,y,ı,q,d,a,w
e
p,y,d
d,ı,a,y,s
y,q,f,o,d,t,p,u,ı,a,w,e,r
w,g,ı,t,u,d,q,e,a,s,o,p
r,p,o,u,w,d,e,f,g
r,s,p,g,f,d,o
f,e,d,s,r,y,g
ı,o,d,g,s,q,w
ı,s,t
g,q,s,r,u,f,o,y,d,a,p,ı
a,u,y,q,s,t,f,o,e,ı,p,w
g,w,p,e,d,f,ı,o,u,s,y,r,q,a
o,p,w,t,e,y
e,t,ı,a,w,q,f,y,o,r,s,u,p
f,r,o
u,ı,p,q,d,e,r,w
t,a,g
d,e,t,u,y,ı,r,a,g,q,s,p,w
u,d,e,t,g,f,s,q,w,y,a
r,p,o,e,d,a,g,t
d,y,s,r,g,ı,q,a,e,o,w
w,p,ı,q,t,u,y,o,s,e,a,f,r
f,y,q,g,s,p,t,u,e
f,ı,y,e,w,r,o
g,p,y,r,q,w,u,e,t,f,ı,a,s,o
w,g,t,p
o,g,w,e,a,ı
f,o,u,w,g,ı,t,q,e
q
q,ı,a,w,r,p,y,g,o,f,t,s,u
g,ı,r,o
a,q,u,g,t,f,y,d,r,e,ı,p
t,g,p,d,y,u,s,w,f,ı,a,e,o,r
w,y,o,t,f
u,a,o,t,r,q,w,s,e,p,y
u,q,p,d,s,g,f
t,s
y,g,ı,a,w,p,f,q,t,s,o,u
a,y,w,u
a,s,g,t,f
a,o,w,e,f,y,r,p,ı,u,q,t
d,g,y,r,ı,f,u,o,e,w,q,t,a,s
q,a,e,f,o,t,s
s,g,o,ı,r,w,p,y,e,f
s,ı,t,f,u,r,q,w,y,e,a
q,r,a,y,ı,e,t,d,s
o,y,f,a,d,w,t,r,ı,g,p,e,q,s
r,e,ı,s,u,g,w,o,y,f,p,q
g,y,t,p
f
u,w,t,d,q,o
s,y,q,u,p,a,f,d,o,ı,t,g,e
u
w,u,p
o
q,f,s,g,t,p,ı,r,o
g,o,t,y,d,s,e,p,r,u,q,f,a,ı
p,r,d,s,o,ı,y,u
s,w
p,t,e,w,g,a,u
u,w,y,o,ı,e,f,q,p,g,a,r
p,e,s,a,q,t,f
y,d,q,r,a,o,p,t
o,a,d,t,y,u,r,f,w,q,s
o,y
o,w,s,g,p,d,u,ı,e,a,f,y,q,t
r,a,f,t,u,p,o,s
o,u,t,ı,d,r,y,e,s,p,q,w
ı,p,f
ı,s,t,u,r,y,w,q
q,o,r
t,o,y,r,p,a,s,f,u,q,ı,d
u,ı,r,d,o,s,w,p,e,t,a,f,g
p,r,u,g,q,y,o
e,s
e,w
s,t,o,p,u,e,d
o,q,a,u,w,t,g,y,ı,e,r,p,s
d,s,ı,f,q,u
f,ı,d,g,p,y,q,u,o,t
e,o,d
u,t,f,s,q,p,e,y
t,y
o,y,f,s,d
g,ı,r,w,e,u,t
q
u,e,g,ı,p,d,a,r,t,w,o,s,y,f
o,u,a,t,r,g,p,d,s,w,ı,y,q,f
t,g,p,y,w,ı,a,d,r,o
d,y,t,q,u,a,g,e,r
ı,d,a,r,t,e,p,f
u,f,ı,r,s,t,g,a,d,p,q,w
d,f,u,e,a
t,d,ı,a,e
a,o,p,y,d,u,q,s,t
q,a,ı,g,w,s,f,u,e,r,p,t
u
ı,d,u,w,p,r,t,q,o,s,a,e
a,r,w,p
u
w,o,a,q,f,ı
ı,e,t,o,r
u,w,d,f,q,t,o,e,s,r,y,ı,g
s,f,g,a,o,e,q,p,r,t
s,ı,q,r,y,w,d,o,f,t,u,g,e,p
s,f,e,w,r,q,g,p,u,o,a,t
f,o,ı
p,y,u,d
d,y,u,r,a,g,f,e
s,e,f,a,y,g,ı,t,r,p,o
r,s,y,d,w,o,a
s,q,g,o,y,u,p,f,ı
w,e,g
ı,t,a,y,g,p,o,d
r,e,y,q,o,d
g,y,q,e,ı,t,p,a,w,u,o,f
d
s,r,ı,p,w
ı
q,g,u,d,t,s,ı,p,r,o
ı,y,t,o,d,p
ı,r,a,t,d,f,e,g,o,p,u,q,w
w
y,s,w,t,a,q
p,r,w,f,u,q,y,d,t,e
q,f,o,u,r,e
e,o,a,d,u,g,ı,r,w,q,f,t,p,y
r,f,ı,p,t,o,d,g,q,u,w,a,y
f
r,a,ı,q,u,d,o,e
a
g,f,s,q,p
w,e,a,s,r,f,q,y,d,p,ı
r
a,e,w,t
y
g,o
e,d,ı,p,a,s,r,q,t
a,d,q,e,p,s
ı,w,y,e,d
p,w,o,s,ı,e,r
p,f,y,d,u,w,s,t,r,o,g,a,e
u,y,e,ı,f,t,d,p,g,q,a,s,w,r
f,u,r,y,q,ı,s
a,e,w,g,s,u,y,d,p,r
y,g,f,ı
s,p,t,e,u
f,t,y,q,p,d,o,g
s,u,f,w,g,y,d
p,o,g,s,u,t,y
d,p,g,t,e,a,ı,q,s,w,o,f,u,y
y
a,ı,e,r,p,f,u
y,p,q,u,o,ı
e,a,o,q
r,e,d,y,g,f
g,q,u,r
d,u,s,t,g,w,ı,y,q,o,a
u,a,t,s,f,p,r
p,t,a,w,e,o,u,ı
d,s,r,g,y,a,ı,t,e,q,p,w,u
ı,f,y,d
ı,q,w,g,d,r,u,a,e
s
ı,e,y,r,f,w,d,q,p,a,u,t
e,a,o,ı
o,u,ı,e,w,s,f,a,t,d,r,q,y,p
o,u,s,f,r,p,q,a,g,t,d,e,ı
y,e,q
u,a,ı
o,r,q,a
r,d,ı,t,w,p,e,o,y,g,u
g,a,r,f,w,ı,p,e
q,e,t,f,ı,s,g,r,w,d,a,u,p
q
t,ı,p,s,g,u,o,e,y,f
f
o,u,q,r,e
g,y,o
s,p,w,o,f,d,q,ı,r,a
d,o,g,s,t,u,q,ı,r,y
e,r,g,w,o,s,q,u,ı,f,a,d,y,t
f,w,r,e,u,p,d,t,g,ı,s,q,o
p,f
d,a
r
e,p,t,a,o,g,s,w,u
o,e,r
g,w
ı,f,e,a,u,o,t
r,e,o,ı,a,s,q,y,g,f
g,d,q,f,w,o
p,d,o,f,t,y,r,u,g,s,ı,e
a,ı,g,q,d,e,t,u
e,a,ı,f,w,d,y,o,u
g,y,w,r,u,f,o,p,q
f,e,p,d,r,g,u
a,e,d,u,g,w
d,e,t,ı,p,s,f,r
f,s,u,a,o,p,t,y,g
u,p,g,d,a,e,y,f,q,w
s,ı,e,a,f,o,r,q
s,ı,d,a,r,u,f,o
p,w,u,e,o,g,ı,f,r,s,t,q,d,a
u,s,f
ı,e,t,r,y,q,w,g,o,a
s,y,r,a,p,q,d,t,u,f,o,ı,w
y,ı,o,s,u,q,p,t,e,d,w
q,y,r,g,a,d,w,u,p,e,o
o,f,t,s,q,a,r,g,p,ı,u,d
w,q,e,t,a,s,g,d,f,r,o,ı
d,f,q,g,r,s,y,ı,a,o
w,t,ı,q,y,e
s,w,e,g
a,ı,f,r,q,e,o
a,y,r,p,ı,q,w,o,t,s,f,e,u
o
a,d,o,u,t,s,ı,e
ı,d,g,u,r,e,p,o,y,w,q,f
t,u,y,o,g,ı,w
p,o,w,u
u,ı,o,g,p,r,d,t,y,e,f,a
r,ı
y,ı,u,g,s,e,o,r
f,s,y,r,g,t,d
g,ı,q,w,a,y,t,o,u,e,r,d,s,f
p,f,u,o,a,r,e
r,g,a,s,ı
f,y,u,a,o,w,s,t,r,g,e,ı,d,p
o,y,t,d,w,ı,r,s,p,u,a
u,o,f,y,s,t,g,q
u,q
e,a,p,w,y,o,t,g,q
ı,y,r,t,a,f,p
p,r,s
ı,y,t,w,u
q,e,p,g,ı,a,t,r,s,u,y,o,d
w
t,r,ı,g,d,y,w,o,f
g,a,f,r,ı,w,e,y,t,u,d,s,o,q
w,p,g
s,q,o,r,t,f,g,a,ı,u
a
e,s,w,q,a,g,o,ı
s,p,d,a,r,w,y,o,t,g,u,ı,f
f,g,q,s,y,r,o
p,o,y,w,q,s,a,f
r,q,d,s,w,p,u,ı,a,t,y,o,g
u,f,g,w,t,o,d,e,r,s,ı,q,p,a
u,t,s,o,f
t,w,a,d,p
r,y,s,f,w,e,g,o,a,q,u,p,t,ı
a,e,r,o,d,p,y,w,g,u,t,q,f,ı
w,o,g,a,p,e,y,u,r,q,f
p,o,g,t,f,a,s,u,ı,e
t,g
f,ı,r,s,o
d,o,p,q,t,a,ı,u,e,f,r
q,d,a,ı,e
y,e,ı,w,q,d,f,o,r
r,g,u,a,w,f,e
s,o,w,d,f,u,q,r
g,a,o
d
s,g,o,f,a,d,e,t,q,ı,w,y,r,p
u,w,s,d
y,g,f,u,t,o,q
s,ı,q,g,u,o,a,d,f,t
d,u
y,f,u,e,t,o,ı
y,o,g,u,r,ı,a
ı,d,y,p,f,g,q
o,w
s,r,q,g
r,y,g,d,t,f
o,t,a,s,d,y,q,r,e,ı,p,w,u
t,u,f
o,w
w,r,ı,a,y,f,s,u,g,p,d
r,f,t,u
g,q,a,t,p,ı,r,y,w
a,u,d
t,w,g,p,f,e,y,d,s,ı,o
f,o,d,a,ı,r,e,s,p,u,q,y
g,o,d,w,a,ı,y,t,f,r,p
p,d,s,y,w,g,f,t,q,r
e,u,t,y,s,g,a,r,f,d,ı
y
p,q,a,w,u,e,d,r,g,y,f,o
t,y,q,u,w,r,p,f,e,g,d,a,o
a,p,e,t,ı,u,g,f
a,r,f,g,u,e,t,ı,s,p,q,o,w,y
f,ı,d,p,t,e,q
s,t,e,a
q,r,a,g,o
a,e,g,p,u,q,ı,w,o,t,f,r,s,y
u,w,r,e,s,f,t,a,ı,q,y,p
w,e,o
ı,g,q,t,r,u,a,d,f,y,w,e,s,p
r,w,f,q,d
a,ı,o,g,f,d,t,r,p,e,s,w,q,y
f,s,g,e,u
a,r,ı,u,p,w,s,o,q,d
p,u,w,o,ı,g,q,r,f,a,t
t,f,u,p,ı
u,d,y
r,e,y,f,p,ı,g,t,d,q,w,o,u,a
g,r,e,a,p,t,q,u,ı,y,d,o,s,w
r,t
r
d,u,o,g,q,p,s,y
y,e,q,w,u,o,s,p,a
d,f,y,a,o,t,u,ı,w,e,q,p
s,e,u,ı,f,r,d,a,t,p,y,g,o
w,o,u,t,y,d,s,q
q,p,u,y,s,f,e,g,r
y,d,ı,o,g,e,t,r,f
u,w,a,p,y,g,t,s,d,q,f,ı,o,r
u,e,s,a,t,d,f,q,r,y,ı,w
p,e,a,u,t
u,ı,s,t,o,a,p,r,e,f,d,w,g,q
f
g
w,y,u,g,t,d,ı,s,e
r,o,a,ı,g,p,w,t,y,s,q,f,d
ı,p,y,w,g,q,e,d,s,f,o,r
f,y,r,s,a,d,t,q,g
g,f,t,e,p,a,r,d,u,s,o,ı,q
ı,y,p,u,r,t,w
q,u,y,o,p,ı,f,s,g,e,w,t,d,a
f,o,q,s,g,y,r,ı,d
w,q,ı,e,u,p,s,a,f,y,r,o,g
s
f,o,s,r,g,d,t,y
g,u,a,e,y,d,r,s,t
t,e,q
q,w,g,t,d,ı,a
e,w,ı,p,a,u
g,s,d,u,ı,e,q,y,a,r,w,t
y,p,w,u,q,t,d,ı,g,o
ı,g
t,p
f,d,q,ı,u,o,e,t,w,r,s,g,p,y
w,o
g,o,f,d,q,y,r,w,p
q,a,s,p,u,r,w,e,d,f,g
o,r,f,a,ı,q,s,e,y,u
g,a,t
y,d,ı,a,s,r
y,e,u,p,w,ı,o
p,w,d,f,g,s,e,o,r,a
e,d,q
w,t,y,s,e,o,a,f,ı,q
d,t,p,f,a,q,g
p,e,d,w,f,a,ı,o,r,y
o,ı,w,e,f,g,y
ı,r,q,o,a,e,d,u,g,t,p,y,w,f
t,s,ı,e,o,y,w
a
u,r,q,t,g,a,w,d,y
w,y,p,e,f,d,u,g,t,o,s,q
p,w,s,r,u,t,o,f,g,ı,q,a,e,y
q,a,t,p,d,e,o,s,g,ı,u,r,y
y,r,a,d,t,u,p,q
p,s,w,g,o,ı,t,d,y,q,r,f,a
f,g,u,y,d,t,e,p,s,q,w,o,r
g,p,y,o,f,s,w,d,u,q,r,e,a,ı
e,t,w,a,ı,q,f,u,o
f,t,u
o,r,a,w,u,f,e,t,y
w,p,t,y,o,q,d,a,u,g,s,ı,r,e
y,o,e,r,p,s,g,u,q
u,g
s,y,ı,t,f
t,q
s
p,q,a,ı
e,r,w,ı,s,f,y,g,p,t,d,q,u
y,w,p,e
q,y,u,d,w,g,ı,e,o,s,a,p
r,o,d,f,g,t,w,u
e,r,p,o,s,q,g,ı,u,y
w,ı,s,d,u,y,a,p,r,q,o,e,g,f
d,f,q,w,o,s,y,g,a,ı,t,r,u,e
s,p,a,w,e,d,q,g,y,ı,t,u
s,y,ı,p,q,f,d,u,o,w,e,r,a,t
o,d,ı,f,r,q,y,p,u
u,d,q,g,e,a
q,ı,g,a,u,d
s,u,r,o,e,g,t,a,y
s,e
y,t,s,q,o,a,f,r,u,g,w,d,p
o,f,d,p
a,g,y,e,r
r,y,f,o,d,t,s,a
o,y,u,d,r,f,ı,w,e,t,p,a,s
ı,u
o,u,g,q,t
t,s,y,e,a,g
g,y,d
o,a,e,q,p,y,d
w,t,s,f,a,o,ı,e,y,u,p,q,r,d
p,w,r,s,o,y,t,g,d,u,f,ı,a,e
d,e,ı,q,s,u
t,o,ı,q,u,r,w,s,g,d
r,u,g,o,d
p,ı
f,s,y,r,d,ı,a,p,t,g
w,a
q,y,t,w,f,a,e,u,r,p
a,t,w,f,ı,q,e,p,o,r,u,y,g,s
g,r
p,u
q,o,g,p,d,s,f,a,u,y,e,w,r,t
f,r,y,u,p,g,s,q
w,q,t
q,p,o,a,r,w,f,t,y,e,d,u,ı
ı,r,o,q,t,p
u,a,e,s,p
o,r,ı,e
s,y,d,g,t,r,f
f,q,e
q,p,t,u,g,a,f,ı,e,w,o,y,s
w,t,s,ı,e,f,y,o
r,q,s,t,e,w,d,p,g
o,ı
a,r,o,s,t,p,w,q
s,u,w
e,r,a,w,y,o,d,u,t,g,ı,q,s,p
f,t,ı
p,q,t,e,r,a,w,g
s,y,e,r,p,q,t,w
p,r,q
q,a,t,d,g,ı
a,ı,t,s,q,p,o,w,r,d,g,u,y,e
p,o
p
w,r,ı,e,q,g
e,y,r,q,t,ı,g,w,d,u,o,p
a,t,s,ı,d,o,u,g,q
u,a,p
q,a,f,r,o,y,t,g,u,ı
o,r
r,p,f,d,q,t,g,a,w,o,s,u,ı,y
t,o,ı,s
y
a,r,e,y,p,s,t,u,d
q,u,y,f
y,s,p,r,u,f,d,a,t,e,o,ı,q
f,a,u,d,s,p,e,o,y
d,e,t,r,ı,g,o,q,f,a,y,w,p,s
t,d,s,e,ı,p
e,p,q,w,s,f,y,ı,u,d,t,o,g,r
u,q
g,ı,u,y,w,q,t,d,e
s
u,ı,a,g,y,s
u,s,q,a,o,r,w,y,f,t,g,ı,d
ı,r,u,p,q,f,a,y,w,e,s,d
y,a,t,f,ı,r,p
ı,w,g,y,q,s,o,p,u,r,t,d,f,a
o,g,f,u,s,ı,q,d,r,w,a
q,g,w,d,ı
w,d,u,o,r,a,p,t,e,s
q,t
o,u,y,w,d,g,ı,s,r,q,f,p,e
e,q,a,ı,g,t,p,o,r
w,ı,f,u,s,p,r,o,q,g,a,d
ı,r,y,q,d,e,g,t
p,s,t
a,ı,d,w,f
f,w,y,q,a,g,o,p,d,t,r,u
t,g,w,o,ı
g,ı,a,s,u,d
p,t,f,r,u,y,a,ı,g,q,s,o
a,w,s,f,o,e
q,p,d,y,g,ı,f,e
e,s,y,q,w,p,a
y,f,s,w,q,e,g,p,t,u,r
p,d,t,q
s,g,q,a,d,w,e,f,y
ı,s,y,u,d,o,g,a,f
a,g,ı
t
s,d,p,t,g,ı,r,y,a
q,ı,s,f,p,o,r,d,y,t,e
e,f,q,g,a,r,ı,p
ı,a,s,d,t,y,g,r
w,u,p,ı,g,o,t,r,a,e,q
q,p,e,d,s
t,r,e,ı,q,p,u,a,w,y,s,o,f,g
q,w,d,y
f,a,y,ı,u
y
w,s,r,a,f,y,d,ı
e,y,p,o,u,d,t,g,s,a,ı,r,f,w
w,d,f,p
u,r,f,y,d,a,o,ı
o,u,a,e,r,f,d,s,q,t
r,g
s,q,ı,a,e,r,y,w,p,f,d,u
q,p,e,a,y,t,w,f
d,a,u,t,o,q,p,f,y,w,r,ı,e,s
y,g
y,g,ı
o,q,d,f,w,g,u,t,s,a,ı
r,y,t,g,u,f,p,s,q,ı,w,a,d,e
ı,e,d,u,t,r,f,s,g,y,q
g,u,r,f,ı,s,e,p,d,a,w,y,q,o
w,a,t,q,p
d,r,a,o
g,y,p,a,ı,d,r,f,w,s,q,o,e,u
y,q,e
t
w,ı,o
y,o,ı,p,d,r,a
f,q,p,g,s,a,u,y,e,d,r,ı,o,t
u,d,ı,a,p,o,y,e
e,s,o,a,q,p,g,w,t,u
g,d,f,r,o
y,w,f,e,u,s,a
r,p,y,w,o,t
y,w,a,d,e
d,g,y,u,a,s,t,ı,w,o
s,o,w
f,a,w
o,u,y,w,r,g,e,ı,a
e,a,w
u,w,y,d,p
ı,p,e,y,w,f,q,o,u,t
s,o,q,w,ı,e,f,y
g,o,w,a,t,u,p,e
g,f,e,a,w,r,q,y
t,f,p,w,q,u,d,r,y,a,o
a,r,y,w,ı,f,q,t,u,d,o,p,e
u,y
p,s,y,q,u,g,o,f
s,w,o,e,y,t,p,r,ı,u,g,f,a,q
t,o,y,s,d,e,r,q,g,w
d,e,p,ı
t,o,f,q,a,ı,p,d,u
ı,o,y,g,p,u,f,q,t,e
u,w,y,a,f,q,r,g,e,ı,t,o,s
d,w,q,y,p,u
e,y,d,f,r,q,a,u,s,o,ı,g
a,f,o,e,u,p,y,d,s,q
u,ı,t,g
u,s,p
s,f,r,u,d,w,p
s,d,o,y,ı,g,p,r,e,f
q,e,a,w
f,a,q,p,ı,o
r,t,ı,f,u,o,d,s
o,q,r,s,g,ı,w,e,f,d,p
q,o,d,f,w,g,ı,e,u,y,p
d,w,g,y,f,t,s,ı,e,p,r,u,o
q,u,e,f,o,y
y,a,u,p,s
y,ı,d,r,e,a,w,f,g,t,s,q,p,o
y,w,t,e,o,q,u
y,o,s,g,d,e,ı,f
ı,a,f,e,p,o,d,y,w,r,t,s
r,p,ı,u,s,d,q,o,g,e,y,w
y,e,r,g,t,u,q,f,p,ı,w,o
o
p,g,f,s,w,a,q,ı,d,o,y,t
s,o,e,d,p,t,a,u,ı
w,f
f,u,o,q,y,e,w,s
y,e
t,ı,g,f,y,o,r,e
t,u,s,y,g,p,e,a,f,q,r,ı,w
ı,y,q,d,s
u,s,y,o,f,a,d,r
s,q,t,r,w,g,f,d,o,p,y,ı,e,a
t,r,y,e,s,w,o,a,f,p
p,g,q,w,t,e,o,ı,a,u,f,y,r
ı,p,y,r,t,e,o,f,q,d
f,y,e,s,a
p,d,f,q,a,ı,u,r,w,y,g,t,s,o
d,f,a,g,y,t,q,r,e
w,t,u,d,s,g,e,o,q,r
g,ı,e,q,d,r,s,p,a,w,y
d,r,y,w,s,g,q,f,p
e,ı,p,g,r,d,w,t
t,y,a,o
r,g,a
e,o,w,t,u
g,s,q,a,y,r,ı,o,p,d
q,f,e,r,ı,d
a,p,e,d,f,s,o,ı,y,r,w,u,t,q
q,o,g,r,f
r,d,e,w,s,a,o,u,t,ı,y
e,o,f,a,u,t
s,e,a,d,g,y,q,f,o,u,p,t,r
u,t,r,w,e,s,g,f,p,d,o,ı,q,y
p,g,y,w,t,o,d,s,u,f,r,q
r,e,t,w,o,y
f,r,w,d,g,ı,y,q,a
r,s,d,o,f
s,d,r,t,w,o,a,f,y,u,e
w,p,s,a
e,d,r,w,o,f,a,p,g,s,ı,t,q
w,ı,y,q,p,d,s,r,o,f,a,g,e,u
u,s,f,a,y,d,w,ı
a,u,s,d,r,f,y,w,q
f,s,y,r,o,d,g,t,w,q
a,f,ı,w,s,e
g,q,o,e,u
f,ı,g,u,s
w,u,d,g,y,q,ı,t,a,r,e,s
g,d,q,s,f
d,p,y,o,t,ı,e,s,q,r
u,o,s,e,y,d,a
t,y,a,e,ı,u,w
p,d,r,e,y,w
e,a,u,q,g,o,y,t
y,q
q,e,o,r,p,f,a,t
q,p,t,r,d,e,g
a,t,d,f
o,w,u,y,r,a,d,p,s,f,e,g
p,g,d,t,o,y,w
ı,r,y,o,s,e,q,u,d,w,g,a
q,ı,t,r,o,s,u,a,g,w,f,y,p,e
u,q,t
p,t,g,f,o,a,ı,w,r,s,d
t,o,s,r,q,u
f,ı,q,d,p,y,s,a
w,t,ı,p,r,s,g,u
w,r,ı,d,a,f,p,y
p,s,w
y,p,ı,q,r
w,y,q,s,p,t,d,u,r,g,f,ı,a,o
p,r,d,a,y,u,e,t,f,ı,s,w
r,q,e,o,u,s,p,y,t,d,a
a,s,u,p,t,r,ı,d,e,o,y,w,q
q,w,s,g,d,y,e,o,p,t,f
g,d,r,f,p,a,o,w,u,e
f,q,o,g,p,w,a,ı
w,s,o,d,a,e
e,a,g,r,t,f,d,u,w,p,q,ı,o
a,t,u,o,y,s,ı,e,g
f
f,w,e,t,d,a,o,ı
a,o,d
q,d,u,f,y,r,e,t,o,w
s,w,o,u,r,y,q,e
f,p,g,y
e,s,f,w,q,t,g,y,p,r,ı,u,a,d
a,y,q,s
o,a,t,r
r,w,e,f,u
s,p,f,ı
p,q,d,g,r,s,f,t
f
o,g,f,w,q,p,ı,s,d
a,d,g,q,o,p,t,w,y
a,o,r,e,s,p,u,ı,f,t,g,y,q
d,q
q,u,ı,f,o,d,y,w,g
u,o,r,e,p
w,s,a,e,f,g,ı,t
a,g,p,y
f,q,w
p,r,d,a,o,e,f
p,s,d,a,u
q,e,r,ı,p,s,o,f,u,a
p,d,g,w,s,a,e,r
q,t,f,u,w,ı,g,o,p,e
f,ı,y
o,p,r
a,d,y,u,ı,s,w,f,t,e,q,g,r
y
r,s,t,e,u
r,w,g,a,u,y
y,u,p,f,d,g,e,r,ı,o,q,t
y,r,t,g
d,q,u
s,ı,w,q,g,y,e,f,o,r,p
u,p,g,f,a,o
y,ı,u,o,s,d,g,e,q
r,g,y,s,o,f
g,ı,s,u,o
d,t,s,a,u,ı,p,e,w
q,d,a,g,s,y,ı,o,p,w
t,o,s,g,f,ı,p,d
s,p,a,e,d
q,e,a,t,f,u,d,s,ı,o,r,p
g,q,a,ı,o,p
a,ı,d,e,w,o
